(kicad_sch (version 20230121) (generator eeschema)

  (uuid 87769101-e041-49c8-be95-95025a0ad5ef)

  (paper "A4")

  (title_block
    (title "MIDI Footswitch")
    (date "2024-02-15")
    (company "Edwin Weber")
  )

  (lib_symbols
    (symbol "Connector:Conn_01x02_Pin" (pin_names (offset 1.016) hide) (in_bom yes) (on_board yes)
      (property "Reference" "J" (at 0 2.54 0)
        (effects (font (size 1.27 1.27)))
      )
      (property "Value" "Conn_01x02_Pin" (at 0 -5.08 0)
        (effects (font (size 1.27 1.27)))
      )
      (property "Footprint" "" (at 0 0 0)
        (effects (font (size 1.27 1.27)) hide)
      )
      (property "Datasheet" "~" (at 0 0 0)
        (effects (font (size 1.27 1.27)) hide)
      )
      (property "ki_locked" "" (at 0 0 0)
        (effects (font (size 1.27 1.27)))
      )
      (property "ki_keywords" "connector" (at 0 0 0)
        (effects (font (size 1.27 1.27)) hide)
      )
      (property "ki_description" "Generic connector, single row, 01x02, script generated" (at 0 0 0)
        (effects (font (size 1.27 1.27)) hide)
      )
      (property "ki_fp_filters" "Connector*:*_1x??_*" (at 0 0 0)
        (effects (font (size 1.27 1.27)) hide)
      )
      (symbol "Conn_01x02_Pin_1_1"
        (polyline
          (pts
            (xy 1.27 -2.54)
            (xy 0.8636 -2.54)
          )
          (stroke (width 0.1524) (type default))
          (fill (type none))
        )
        (polyline
          (pts
            (xy 1.27 0)
            (xy 0.8636 0)
          )
          (stroke (width 0.1524) (type default))
          (fill (type none))
        )
        (rectangle (start 0.8636 -2.413) (end 0 -2.667)
          (stroke (width 0.1524) (type default))
          (fill (type outline))
        )
        (rectangle (start 0.8636 0.127) (end 0 -0.127)
          (stroke (width 0.1524) (type default))
          (fill (type outline))
        )
        (pin passive line (at 5.08 0 180) (length 3.81)
          (name "Pin_1" (effects (font (size 1.27 1.27))))
          (number "1" (effects (font (size 1.27 1.27))))
        )
        (pin passive line (at 5.08 -2.54 180) (length 3.81)
          (name "Pin_2" (effects (font (size 1.27 1.27))))
          (number "2" (effects (font (size 1.27 1.27))))
        )
      )
    )
    (symbol "Connector:Conn_01x03_Pin" (pin_names (offset 1.016) hide) (in_bom yes) (on_board yes)
      (property "Reference" "J" (at 0 5.08 0)
        (effects (font (size 1.27 1.27)))
      )
      (property "Value" "Conn_01x03_Pin" (at 0 -5.08 0)
        (effects (font (size 1.27 1.27)))
      )
      (property "Footprint" "" (at 0 0 0)
        (effects (font (size 1.27 1.27)) hide)
      )
      (property "Datasheet" "~" (at 0 0 0)
        (effects (font (size 1.27 1.27)) hide)
      )
      (property "ki_locked" "" (at 0 0 0)
        (effects (font (size 1.27 1.27)))
      )
      (property "ki_keywords" "connector" (at 0 0 0)
        (effects (font (size 1.27 1.27)) hide)
      )
      (property "ki_description" "Generic connector, single row, 01x03, script generated" (at 0 0 0)
        (effects (font (size 1.27 1.27)) hide)
      )
      (property "ki_fp_filters" "Connector*:*_1x??_*" (at 0 0 0)
        (effects (font (size 1.27 1.27)) hide)
      )
      (symbol "Conn_01x03_Pin_1_1"
        (polyline
          (pts
            (xy 1.27 -2.54)
            (xy 0.8636 -2.54)
          )
          (stroke (width 0.1524) (type default))
          (fill (type none))
        )
        (polyline
          (pts
            (xy 1.27 0)
            (xy 0.8636 0)
          )
          (stroke (width 0.1524) (type default))
          (fill (type none))
        )
        (polyline
          (pts
            (xy 1.27 2.54)
            (xy 0.8636 2.54)
          )
          (stroke (width 0.1524) (type default))
          (fill (type none))
        )
        (rectangle (start 0.8636 -2.413) (end 0 -2.667)
          (stroke (width 0.1524) (type default))
          (fill (type outline))
        )
        (rectangle (start 0.8636 0.127) (end 0 -0.127)
          (stroke (width 0.1524) (type default))
          (fill (type outline))
        )
        (rectangle (start 0.8636 2.667) (end 0 2.413)
          (stroke (width 0.1524) (type default))
          (fill (type outline))
        )
        (pin passive line (at 5.08 2.54 180) (length 3.81)
          (name "Pin_1" (effects (font (size 1.27 1.27))))
          (number "1" (effects (font (size 1.27 1.27))))
        )
        (pin passive line (at 5.08 0 180) (length 3.81)
          (name "Pin_2" (effects (font (size 1.27 1.27))))
          (number "2" (effects (font (size 1.27 1.27))))
        )
        (pin passive line (at 5.08 -2.54 180) (length 3.81)
          (name "Pin_3" (effects (font (size 1.27 1.27))))
          (number "3" (effects (font (size 1.27 1.27))))
        )
      )
    )
    (symbol "Connector:Conn_01x04_Pin" (pin_names (offset 1.016) hide) (in_bom yes) (on_board yes)
      (property "Reference" "J" (at 0 5.08 0)
        (effects (font (size 1.27 1.27)))
      )
      (property "Value" "Conn_01x04_Pin" (at 0 -7.62 0)
        (effects (font (size 1.27 1.27)))
      )
      (property "Footprint" "" (at 0 0 0)
        (effects (font (size 1.27 1.27)) hide)
      )
      (property "Datasheet" "~" (at 0 0 0)
        (effects (font (size 1.27 1.27)) hide)
      )
      (property "ki_locked" "" (at 0 0 0)
        (effects (font (size 1.27 1.27)))
      )
      (property "ki_keywords" "connector" (at 0 0 0)
        (effects (font (size 1.27 1.27)) hide)
      )
      (property "ki_description" "Generic connector, single row, 01x04, script generated" (at 0 0 0)
        (effects (font (size 1.27 1.27)) hide)
      )
      (property "ki_fp_filters" "Connector*:*_1x??_*" (at 0 0 0)
        (effects (font (size 1.27 1.27)) hide)
      )
      (symbol "Conn_01x04_Pin_1_1"
        (polyline
          (pts
            (xy 1.27 -5.08)
            (xy 0.8636 -5.08)
          )
          (stroke (width 0.1524) (type default))
          (fill (type none))
        )
        (polyline
          (pts
            (xy 1.27 -2.54)
            (xy 0.8636 -2.54)
          )
          (stroke (width 0.1524) (type default))
          (fill (type none))
        )
        (polyline
          (pts
            (xy 1.27 0)
            (xy 0.8636 0)
          )
          (stroke (width 0.1524) (type default))
          (fill (type none))
        )
        (polyline
          (pts
            (xy 1.27 2.54)
            (xy 0.8636 2.54)
          )
          (stroke (width 0.1524) (type default))
          (fill (type none))
        )
        (rectangle (start 0.8636 -4.953) (end 0 -5.207)
          (stroke (width 0.1524) (type default))
          (fill (type outline))
        )
        (rectangle (start 0.8636 -2.413) (end 0 -2.667)
          (stroke (width 0.1524) (type default))
          (fill (type outline))
        )
        (rectangle (start 0.8636 0.127) (end 0 -0.127)
          (stroke (width 0.1524) (type default))
          (fill (type outline))
        )
        (rectangle (start 0.8636 2.667) (end 0 2.413)
          (stroke (width 0.1524) (type default))
          (fill (type outline))
        )
        (pin passive line (at 5.08 2.54 180) (length 3.81)
          (name "Pin_1" (effects (font (size 1.27 1.27))))
          (number "1" (effects (font (size 1.27 1.27))))
        )
        (pin passive line (at 5.08 0 180) (length 3.81)
          (name "Pin_2" (effects (font (size 1.27 1.27))))
          (number "2" (effects (font (size 1.27 1.27))))
        )
        (pin passive line (at 5.08 -2.54 180) (length 3.81)
          (name "Pin_3" (effects (font (size 1.27 1.27))))
          (number "3" (effects (font (size 1.27 1.27))))
        )
        (pin passive line (at 5.08 -5.08 180) (length 3.81)
          (name "Pin_4" (effects (font (size 1.27 1.27))))
          (number "4" (effects (font (size 1.27 1.27))))
        )
      )
    )
    (symbol "Connector:Conn_01x05_Pin" (pin_names (offset 1.016) hide) (in_bom yes) (on_board yes)
      (property "Reference" "J" (at 0 7.62 0)
        (effects (font (size 1.27 1.27)))
      )
      (property "Value" "Conn_01x05_Pin" (at 0 -7.62 0)
        (effects (font (size 1.27 1.27)))
      )
      (property "Footprint" "" (at 0 0 0)
        (effects (font (size 1.27 1.27)) hide)
      )
      (property "Datasheet" "~" (at 0 0 0)
        (effects (font (size 1.27 1.27)) hide)
      )
      (property "ki_locked" "" (at 0 0 0)
        (effects (font (size 1.27 1.27)))
      )
      (property "ki_keywords" "connector" (at 0 0 0)
        (effects (font (size 1.27 1.27)) hide)
      )
      (property "ki_description" "Generic connector, single row, 01x05, script generated" (at 0 0 0)
        (effects (font (size 1.27 1.27)) hide)
      )
      (property "ki_fp_filters" "Connector*:*_1x??_*" (at 0 0 0)
        (effects (font (size 1.27 1.27)) hide)
      )
      (symbol "Conn_01x05_Pin_1_1"
        (polyline
          (pts
            (xy 1.27 -5.08)
            (xy 0.8636 -5.08)
          )
          (stroke (width 0.1524) (type default))
          (fill (type none))
        )
        (polyline
          (pts
            (xy 1.27 -2.54)
            (xy 0.8636 -2.54)
          )
          (stroke (width 0.1524) (type default))
          (fill (type none))
        )
        (polyline
          (pts
            (xy 1.27 0)
            (xy 0.8636 0)
          )
          (stroke (width 0.1524) (type default))
          (fill (type none))
        )
        (polyline
          (pts
            (xy 1.27 2.54)
            (xy 0.8636 2.54)
          )
          (stroke (width 0.1524) (type default))
          (fill (type none))
        )
        (polyline
          (pts
            (xy 1.27 5.08)
            (xy 0.8636 5.08)
          )
          (stroke (width 0.1524) (type default))
          (fill (type none))
        )
        (rectangle (start 0.8636 -4.953) (end 0 -5.207)
          (stroke (width 0.1524) (type default))
          (fill (type outline))
        )
        (rectangle (start 0.8636 -2.413) (end 0 -2.667)
          (stroke (width 0.1524) (type default))
          (fill (type outline))
        )
        (rectangle (start 0.8636 0.127) (end 0 -0.127)
          (stroke (width 0.1524) (type default))
          (fill (type outline))
        )
        (rectangle (start 0.8636 2.667) (end 0 2.413)
          (stroke (width 0.1524) (type default))
          (fill (type outline))
        )
        (rectangle (start 0.8636 5.207) (end 0 4.953)
          (stroke (width 0.1524) (type default))
          (fill (type outline))
        )
        (pin passive line (at 5.08 5.08 180) (length 3.81)
          (name "Pin_1" (effects (font (size 1.27 1.27))))
          (number "1" (effects (font (size 1.27 1.27))))
        )
        (pin passive line (at 5.08 2.54 180) (length 3.81)
          (name "Pin_2" (effects (font (size 1.27 1.27))))
          (number "2" (effects (font (size 1.27 1.27))))
        )
        (pin passive line (at 5.08 0 180) (length 3.81)
          (name "Pin_3" (effects (font (size 1.27 1.27))))
          (number "3" (effects (font (size 1.27 1.27))))
        )
        (pin passive line (at 5.08 -2.54 180) (length 3.81)
          (name "Pin_4" (effects (font (size 1.27 1.27))))
          (number "4" (effects (font (size 1.27 1.27))))
        )
        (pin passive line (at 5.08 -5.08 180) (length 3.81)
          (name "Pin_5" (effects (font (size 1.27 1.27))))
          (number "5" (effects (font (size 1.27 1.27))))
        )
      )
    )
    (symbol "Device:R" (pin_numbers hide) (pin_names (offset 0)) (in_bom yes) (on_board yes)
      (property "Reference" "R" (at 2.032 0 90)
        (effects (font (size 1.27 1.27)))
      )
      (property "Value" "R" (at 0 0 90)
        (effects (font (size 1.27 1.27)))
      )
      (property "Footprint" "" (at -1.778 0 90)
        (effects (font (size 1.27 1.27)) hide)
      )
      (property "Datasheet" "~" (at 0 0 0)
        (effects (font (size 1.27 1.27)) hide)
      )
      (property "ki_keywords" "R res resistor" (at 0 0 0)
        (effects (font (size 1.27 1.27)) hide)
      )
      (property "ki_description" "Resistor" (at 0 0 0)
        (effects (font (size 1.27 1.27)) hide)
      )
      (property "ki_fp_filters" "R_*" (at 0 0 0)
        (effects (font (size 1.27 1.27)) hide)
      )
      (symbol "R_0_1"
        (rectangle (start -1.016 -2.54) (end 1.016 2.54)
          (stroke (width 0.254) (type default))
          (fill (type none))
        )
      )
      (symbol "R_1_1"
        (pin passive line (at 0 3.81 270) (length 1.27)
          (name "~" (effects (font (size 1.27 1.27))))
          (number "1" (effects (font (size 1.27 1.27))))
        )
        (pin passive line (at 0 -3.81 90) (length 1.27)
          (name "~" (effects (font (size 1.27 1.27))))
          (number "2" (effects (font (size 1.27 1.27))))
        )
      )
    )
    (symbol "MCU_Module:Arduino_Nano_v3.x" (in_bom yes) (on_board yes)
      (property "Reference" "A1" (at 4.7341 -25.4 0)
        (effects (font (size 1.27 1.27)) (justify left))
      )
      (property "Value" "Arduino_Nano_v3.x" (at 4.7341 -27.94 0)
        (effects (font (size 1.27 1.27)) (justify left))
      )
      (property "Footprint" "Module:Arduino_Nano" (at 0 0 0)
        (effects (font (size 1.27 1.27) italic) hide)
      )
      (property "Datasheet" "http://www.mouser.com/pdfdocs/Gravitech_Arduino_Nano3_0.pdf" (at 0 0 0)
        (effects (font (size 1.27 1.27)) hide)
      )
      (property "ki_keywords" "Arduino nano microcontroller module USB" (at 0 0 0)
        (effects (font (size 1.27 1.27)) hide)
      )
      (property "ki_description" "Arduino Nano v3.x" (at 0 0 0)
        (effects (font (size 1.27 1.27)) hide)
      )
      (property "ki_fp_filters" "Arduino*Nano*" (at 0 0 0)
        (effects (font (size 1.27 1.27)) hide)
      )
      (symbol "Arduino_Nano_v3.x_0_1"
        (rectangle (start -10.16 22.86) (end 10.16 -22.86)
          (stroke (width 0.254) (type default))
          (fill (type background))
        )
      )
      (symbol "Arduino_Nano_v3.x_1_1"
        (pin bidirectional line (at -12.7 12.7 0) (length 2.54)
          (name "D1/TX" (effects (font (size 1.27 1.27))))
          (number "1" (effects (font (size 1.27 1.27))))
        )
        (pin bidirectional line (at -12.7 -2.54 0) (length 2.54)
          (name "D7" (effects (font (size 1.27 1.27))))
          (number "10" (effects (font (size 1.27 1.27))))
        )
        (pin bidirectional line (at -12.7 -5.08 0) (length 2.54)
          (name "D8" (effects (font (size 1.27 1.27))))
          (number "11" (effects (font (size 1.27 1.27))))
        )
        (pin bidirectional line (at -12.7 -7.62 0) (length 2.54)
          (name "D9" (effects (font (size 1.27 1.27))))
          (number "12" (effects (font (size 1.27 1.27))))
        )
        (pin bidirectional line (at -12.7 -10.16 0) (length 2.54)
          (name "D10/SS" (effects (font (size 1.27 1.27))))
          (number "13" (effects (font (size 1.27 1.27))))
        )
        (pin bidirectional line (at -12.7 -12.7 0) (length 2.54)
          (name "D11/MOSI" (effects (font (size 1.27 1.27))))
          (number "14" (effects (font (size 1.27 1.27))))
        )
        (pin bidirectional line (at -12.7 -15.24 0) (length 2.54)
          (name "D12/MISO" (effects (font (size 1.27 1.27))))
          (number "15" (effects (font (size 1.27 1.27))))
        )
        (pin bidirectional line (at -12.7 -17.78 0) (length 2.54)
          (name "D13/SCK" (effects (font (size 1.27 1.27))))
          (number "16" (effects (font (size 1.27 1.27))))
        )
        (pin power_out line (at 2.54 25.4 270) (length 2.54)
          (name "3V3" (effects (font (size 1.27 1.27))))
          (number "17" (effects (font (size 1.27 1.27))))
        )
        (pin input line (at 12.7 5.08 180) (length 2.54)
          (name "AREF" (effects (font (size 1.27 1.27))))
          (number "18" (effects (font (size 1.27 1.27))))
        )
        (pin bidirectional line (at 12.7 0 180) (length 2.54)
          (name "A0" (effects (font (size 1.27 1.27))))
          (number "19" (effects (font (size 1.27 1.27))))
        )
        (pin bidirectional line (at -12.7 15.24 0) (length 2.54)
          (name "D0/RX" (effects (font (size 1.27 1.27))))
          (number "2" (effects (font (size 1.27 1.27))))
        )
        (pin bidirectional line (at 12.7 -2.54 180) (length 2.54)
          (name "A1" (effects (font (size 1.27 1.27))))
          (number "20" (effects (font (size 1.27 1.27))))
        )
        (pin bidirectional line (at 12.7 -5.08 180) (length 2.54)
          (name "A2" (effects (font (size 1.27 1.27))))
          (number "21" (effects (font (size 1.27 1.27))))
        )
        (pin bidirectional line (at 12.7 -7.62 180) (length 2.54)
          (name "A3" (effects (font (size 1.27 1.27))))
          (number "22" (effects (font (size 1.27 1.27))))
        )
        (pin bidirectional line (at 12.7 -10.16 180) (length 2.54)
          (name "A4" (effects (font (size 1.27 1.27))))
          (number "23" (effects (font (size 1.27 1.27))))
        )
        (pin bidirectional line (at 12.7 -12.7 180) (length 2.54)
          (name "A5" (effects (font (size 1.27 1.27))))
          (number "24" (effects (font (size 1.27 1.27))))
        )
        (pin bidirectional line (at 12.7 -15.24 180) (length 2.54)
          (name "A6" (effects (font (size 1.27 1.27))))
          (number "25" (effects (font (size 1.27 1.27))))
        )
        (pin bidirectional line (at 12.7 -17.78 180) (length 2.54)
          (name "A7" (effects (font (size 1.27 1.27))))
          (number "26" (effects (font (size 1.27 1.27))))
        )
        (pin power_out line (at 5.08 25.4 270) (length 2.54)
          (name "+5V" (effects (font (size 1.27 1.27))))
          (number "27" (effects (font (size 1.27 1.27))))
        )
        (pin input line (at 12.7 15.24 180) (length 2.54)
          (name "~{RESET}" (effects (font (size 1.27 1.27))))
          (number "28" (effects (font (size 1.27 1.27))))
        )
        (pin power_in line (at 2.54 -25.4 90) (length 2.54)
          (name "GND" (effects (font (size 1.27 1.27))))
          (number "29" (effects (font (size 1.27 1.27))))
        )
        (pin input line (at 12.7 12.7 180) (length 2.54)
          (name "~{RESET}" (effects (font (size 1.27 1.27))))
          (number "3" (effects (font (size 1.27 1.27))))
        )
        (pin power_in line (at -2.54 25.4 270) (length 2.54)
          (name "VIN" (effects (font (size 1.27 1.27))))
          (number "30" (effects (font (size 1.27 1.27))))
        )
        (pin power_in line (at 0 -25.4 90) (length 2.54)
          (name "GND" (effects (font (size 1.27 1.27))))
          (number "4" (effects (font (size 1.27 1.27))))
        )
        (pin bidirectional line (at -12.7 10.16 0) (length 2.54)
          (name "D2" (effects (font (size 1.27 1.27))))
          (number "5" (effects (font (size 1.27 1.27))))
        )
        (pin bidirectional line (at -12.7 7.62 0) (length 2.54)
          (name "D3" (effects (font (size 1.27 1.27))))
          (number "6" (effects (font (size 1.27 1.27))))
        )
        (pin bidirectional line (at -12.7 5.08 0) (length 2.54)
          (name "D4" (effects (font (size 1.27 1.27))))
          (number "7" (effects (font (size 1.27 1.27))))
        )
        (pin bidirectional line (at -12.7 2.54 0) (length 2.54)
          (name "D5" (effects (font (size 1.27 1.27))))
          (number "8" (effects (font (size 1.27 1.27))))
        )
        (pin bidirectional line (at -12.7 0 0) (length 2.54)
          (name "D6" (effects (font (size 1.27 1.27))))
          (number "9" (effects (font (size 1.27 1.27))))
        )
      )
    )
    (symbol "power:GND" (power) (pin_names (offset 0)) (in_bom yes) (on_board yes)
      (property "Reference" "#PWR" (at 0 -6.35 0)
        (effects (font (size 1.27 1.27)) hide)
      )
      (property "Value" "GND" (at 0 -3.81 0)
        (effects (font (size 1.27 1.27)))
      )
      (property "Footprint" "" (at 0 0 0)
        (effects (font (size 1.27 1.27)) hide)
      )
      (property "Datasheet" "" (at 0 0 0)
        (effects (font (size 1.27 1.27)) hide)
      )
      (property "ki_keywords" "global power" (at 0 0 0)
        (effects (font (size 1.27 1.27)) hide)
      )
      (property "ki_description" "Power symbol creates a global label with name \"GND\" , ground" (at 0 0 0)
        (effects (font (size 1.27 1.27)) hide)
      )
      (symbol "GND_0_1"
        (polyline
          (pts
            (xy 0 0)
            (xy 0 -1.27)
            (xy 1.27 -1.27)
            (xy 0 -2.54)
            (xy -1.27 -1.27)
            (xy 0 -1.27)
          )
          (stroke (width 0) (type default))
          (fill (type none))
        )
      )
      (symbol "GND_1_1"
        (pin power_in line (at 0 0 270) (length 0) hide
          (name "GND" (effects (font (size 1.27 1.27))))
          (number "1" (effects (font (size 1.27 1.27))))
        )
      )
    )
    (symbol "power:VDD" (power) (pin_names (offset 0)) (in_bom yes) (on_board yes)
      (property "Reference" "#PWR" (at 0 -3.81 0)
        (effects (font (size 1.27 1.27)) hide)
      )
      (property "Value" "VDD" (at 0 3.81 0)
        (effects (font (size 1.27 1.27)))
      )
      (property "Footprint" "" (at 0 0 0)
        (effects (font (size 1.27 1.27)) hide)
      )
      (property "Datasheet" "" (at 0 0 0)
        (effects (font (size 1.27 1.27)) hide)
      )
      (property "ki_keywords" "global power" (at 0 0 0)
        (effects (font (size 1.27 1.27)) hide)
      )
      (property "ki_description" "Power symbol creates a global label with name \"VDD\"" (at 0 0 0)
        (effects (font (size 1.27 1.27)) hide)
      )
      (symbol "VDD_0_1"
        (polyline
          (pts
            (xy -0.762 1.27)
            (xy 0 2.54)
          )
          (stroke (width 0) (type default))
          (fill (type none))
        )
        (polyline
          (pts
            (xy 0 0)
            (xy 0 2.54)
          )
          (stroke (width 0) (type default))
          (fill (type none))
        )
        (polyline
          (pts
            (xy 0 2.54)
            (xy 0.762 1.27)
          )
          (stroke (width 0) (type default))
          (fill (type none))
        )
      )
      (symbol "VDD_1_1"
        (pin power_in line (at 0 0 90) (length 0) hide
          (name "VDD" (effects (font (size 1.27 1.27))))
          (number "1" (effects (font (size 1.27 1.27))))
        )
      )
    )
  )

  (junction (at 176.53 136.525) (diameter 0) (color 0 0 0 0)
    (uuid 0cd9d52b-64aa-43cc-830c-bb58fff33213)
  )
  (junction (at 176.53 111.125) (diameter 0) (color 0 0 0 0)
    (uuid 1664b9ab-5cd1-4c6f-aa6a-ea272c525e71)
  )
  (junction (at 176.53 104.14) (diameter 0) (color 0 0 0 0)
    (uuid 8b52d9e6-1633-4758-816f-69390d5ff254)
  )
  (junction (at 176.53 130.175) (diameter 0) (color 0 0 0 0)
    (uuid b4ad7f96-78e2-4c23-8877-62035981ab9b)
  )
  (junction (at 176.53 123.825) (diameter 0) (color 0 0 0 0)
    (uuid e7856215-fd93-4a65-b874-d488d56eb304)
  )
  (junction (at 176.53 117.475) (diameter 0) (color 0 0 0 0)
    (uuid f5e39caa-b54b-4b3e-9dee-f1bcb86f7edb)
  )

  (wire (pts (xy 179.07 97.79) (xy 176.53 97.79))
    (stroke (width 0) (type default))
    (uuid 06b947d4-8dd5-4162-878f-5139062598ee)
  )
  (wire (pts (xy 179.07 121.285) (xy 164.465 121.285))
    (stroke (width 0) (type default))
    (uuid 098bbc65-e156-4189-bf0b-13bb90a9b291)
  )
  (wire (pts (xy 160.655 90.805) (xy 160.655 109.22))
    (stroke (width 0) (type default))
    (uuid 0af6fe7c-4111-447a-8707-5a8ad5435781)
  )
  (wire (pts (xy 207.01 85.725) (xy 207.01 93.345))
    (stroke (width 0) (type default))
    (uuid 114f7f9a-440b-4309-9ec5-45370082331e)
  )
  (wire (pts (xy 180.975 62.865) (xy 180.975 68.58))
    (stroke (width 0) (type default))
    (uuid 13e739fa-09c1-413c-a6ed-3f435a868869)
  )
  (wire (pts (xy 149.86 106.68) (xy 170.815 106.68))
    (stroke (width 0) (type default))
    (uuid 15454f73-61d6-44e6-90a8-a4921505fafb)
  )
  (wire (pts (xy 170.815 106.68) (xy 170.815 114.935))
    (stroke (width 0) (type default))
    (uuid 18cf0fb7-633c-43e6-b769-1fb9cb4d8987)
  )
  (wire (pts (xy 164.465 36.195) (xy 170.18 36.195))
    (stroke (width 0) (type default))
    (uuid 2295292f-9f38-4053-bd8f-63fea68f65c1)
  )
  (wire (pts (xy 167.005 52.07) (xy 167.005 38.735))
    (stroke (width 0) (type default))
    (uuid 2ea81e1c-d0df-40d0-a220-1d14f0789cd0)
  )
  (wire (pts (xy 154.94 52.07) (xy 167.005 52.07))
    (stroke (width 0) (type default))
    (uuid 2fd139c4-1a3d-4c98-af1a-2f4f18ae095a)
  )
  (wire (pts (xy 99.06 86.36) (xy 124.46 86.36))
    (stroke (width 0) (type default))
    (uuid 31a7e337-009c-494f-9912-b6ca6d90b279)
  )
  (wire (pts (xy 182.88 71.12) (xy 156.845 71.12))
    (stroke (width 0) (type default))
    (uuid 3333d561-ce10-4c13-b875-afdb9b0935d6)
  )
  (wire (pts (xy 164.465 43.815) (xy 164.465 36.195))
    (stroke (width 0) (type default))
    (uuid 33926bf3-af2a-498b-86ed-ca15a2a5e852)
  )
  (wire (pts (xy 118.745 93.98) (xy 124.46 93.98))
    (stroke (width 0) (type default))
    (uuid 34010207-f1b6-4ad6-9e5e-cab068d20139)
  )
  (wire (pts (xy 161.925 111.76) (xy 161.925 88.265))
    (stroke (width 0) (type default))
    (uuid 342bc64d-1468-4f93-926d-0fa4189fbcc8)
  )
  (wire (pts (xy 176.53 136.525) (xy 176.53 146.05))
    (stroke (width 0) (type default))
    (uuid 34723ba4-b81e-4964-80a8-d9aa227dce99)
  )
  (wire (pts (xy 176.53 136.525) (xy 179.07 136.525))
    (stroke (width 0) (type default))
    (uuid 36d8b03c-f145-494b-9a29-b2c95ca23089)
  )
  (wire (pts (xy 159.385 73.66) (xy 182.88 73.66))
    (stroke (width 0) (type default))
    (uuid 38ad0a9c-a3c5-4098-93f5-406f8c14f2ad)
  )
  (wire (pts (xy 176.53 117.475) (xy 179.07 117.475))
    (stroke (width 0) (type default))
    (uuid 398623ec-bf9f-4764-a522-ca5ae723c758)
  )
  (wire (pts (xy 124.46 111.76) (xy 111.76 111.76))
    (stroke (width 0) (type default))
    (uuid 3a3dcaa4-6bd6-4387-a46f-46776cb9de1b)
  )
  (wire (pts (xy 167.005 38.735) (xy 170.18 38.735))
    (stroke (width 0) (type default))
    (uuid 3b17bf2d-421a-42b1-b833-c8509f464118)
  )
  (wire (pts (xy 156.845 60.96) (xy 120.015 60.96))
    (stroke (width 0) (type default))
    (uuid 3e8aafea-274c-41a7-92e3-2c22831a67e6)
  )
  (wire (pts (xy 111.76 140.335) (xy 165.735 140.335))
    (stroke (width 0) (type default))
    (uuid 40dd7c4b-4c17-45c3-a7d2-0bc0fe17bd76)
  )
  (wire (pts (xy 176.53 111.125) (xy 176.53 117.475))
    (stroke (width 0) (type default))
    (uuid 45828fcf-0c82-4e24-aa51-9b561c7d2dec)
  )
  (wire (pts (xy 120.015 88.9) (xy 124.46 88.9))
    (stroke (width 0) (type default))
    (uuid 509d7469-5d06-4d12-9bf0-98dd68dbbc2a)
  )
  (wire (pts (xy 124.46 109.22) (xy 110.49 109.22))
    (stroke (width 0) (type default))
    (uuid 51e93fe3-281f-44b4-89c6-15bbb98e41ae)
  )
  (wire (pts (xy 110.49 109.22) (xy 110.49 141.605))
    (stroke (width 0) (type default))
    (uuid 52ba017d-4e77-41c1-a6c6-eeb921cbd9a4)
  )
  (wire (pts (xy 149.86 99.06) (xy 164.465 99.06))
    (stroke (width 0) (type default))
    (uuid 54e29dc1-7ff4-4c2b-8f9d-1ba3dc3969ad)
  )
  (wire (pts (xy 158.115 59.69) (xy 118.745 59.69))
    (stroke (width 0) (type default))
    (uuid 554b44d3-7792-46a4-853b-65a63164814e)
  )
  (wire (pts (xy 165.735 140.335) (xy 165.735 127.635))
    (stroke (width 0) (type default))
    (uuid 556e3fff-b3bf-4434-9c43-5edf7de4d7c7)
  )
  (wire (pts (xy 143.51 43.815) (xy 147.32 43.815))
    (stroke (width 0) (type default))
    (uuid 5a57ce81-3d7b-4d03-84d1-7622d74c548f)
  )
  (wire (pts (xy 137.16 124.46) (xy 137.16 126.365))
    (stroke (width 0) (type default))
    (uuid 5ca36b7e-e165-4f0c-ba8f-fa0490e15e13)
  )
  (wire (pts (xy 164.465 99.06) (xy 164.465 95.25))
    (stroke (width 0) (type default))
    (uuid 61e4896a-bc04-4238-ae2c-ca495982df26)
  )
  (wire (pts (xy 215.265 90.805) (xy 160.655 90.805))
    (stroke (width 0) (type default))
    (uuid 63f08fbc-0991-4dc5-9175-c170a38976d1)
  )
  (wire (pts (xy 117.475 58.42) (xy 159.385 58.42))
    (stroke (width 0) (type default))
    (uuid 6d524c55-9e14-45d2-8ecf-5fa122b664f8)
  )
  (wire (pts (xy 139.7 124.46) (xy 139.7 132.08))
    (stroke (width 0) (type default))
    (uuid 7062dea2-270f-4f56-90e5-a6ef4142cd94)
  )
  (wire (pts (xy 215.265 85.725) (xy 207.01 85.725))
    (stroke (width 0) (type default))
    (uuid 7a475e58-516d-4abf-9f72-64aeee09ba87)
  )
  (wire (pts (xy 99.06 52.07) (xy 99.06 86.36))
    (stroke (width 0) (type default))
    (uuid 7beb1490-de08-4dd5-b127-12d4a0f60c69)
  )
  (wire (pts (xy 147.32 52.07) (xy 99.06 52.07))
    (stroke (width 0) (type default))
    (uuid 7c0d1ed2-fe02-41ee-8b77-cd1cab5150e0)
  )
  (wire (pts (xy 117.475 91.44) (xy 117.475 58.42))
    (stroke (width 0) (type default))
    (uuid 81c6dcb5-24fb-447c-84d8-15941a2cf45d)
  )
  (wire (pts (xy 210.185 83.185) (xy 210.185 78.74))
    (stroke (width 0) (type default))
    (uuid 883182c4-517b-47eb-87ab-15f3ff94e661)
  )
  (wire (pts (xy 165.735 127.635) (xy 179.07 127.635))
    (stroke (width 0) (type default))
    (uuid 8af8b130-0a22-4eb9-a1c9-e0cab5c95a7f)
  )
  (wire (pts (xy 176.53 97.79) (xy 176.53 104.14))
    (stroke (width 0) (type default))
    (uuid 8e8c937f-83a6-4972-a197-f6afb51cb9fb)
  )
  (wire (pts (xy 154.94 43.815) (xy 164.465 43.815))
    (stroke (width 0) (type default))
    (uuid 8f3ab42b-e3b5-4646-8f7c-cc35e6f3ce78)
  )
  (wire (pts (xy 179.07 133.985) (xy 167.005 133.985))
    (stroke (width 0) (type default))
    (uuid 8f663da5-6714-4abb-9947-38381355938a)
  )
  (wire (pts (xy 170.815 114.935) (xy 179.07 114.935))
    (stroke (width 0) (type default))
    (uuid 8fbc2b48-97d8-49e0-9353-5e02b2f9ee5f)
  )
  (wire (pts (xy 161.925 88.265) (xy 215.265 88.265))
    (stroke (width 0) (type default))
    (uuid 93784c82-9423-46de-8ef5-f395d6ac6579)
  )
  (wire (pts (xy 118.745 59.69) (xy 118.745 93.98))
    (stroke (width 0) (type default))
    (uuid 9649f01b-f131-4bdf-8ca0-8d7fb53bc382)
  )
  (wire (pts (xy 176.53 123.825) (xy 179.07 123.825))
    (stroke (width 0) (type default))
    (uuid 97978277-8b40-4a67-85cb-b2438cde85d5)
  )
  (wire (pts (xy 177.165 66.04) (xy 182.88 66.04))
    (stroke (width 0) (type default))
    (uuid 9f773d91-29e6-439a-abea-d07680b75ab4)
  )
  (wire (pts (xy 167.005 133.985) (xy 167.005 141.605))
    (stroke (width 0) (type default))
    (uuid a0230760-cbcb-43d6-9a7c-3ae664c7411b)
  )
  (wire (pts (xy 164.465 139.065) (xy 113.03 139.065))
    (stroke (width 0) (type default))
    (uuid a4eca647-6c54-48d9-beff-95761c4cf64e)
  )
  (wire (pts (xy 182.88 68.58) (xy 180.975 68.58))
    (stroke (width 0) (type default))
    (uuid aed4fecd-4c55-4017-ad43-9531d3440cf4)
  )
  (wire (pts (xy 172.085 104.14) (xy 149.86 104.14))
    (stroke (width 0) (type default))
    (uuid b711a3b8-4041-42c3-a263-3e8cf81e3fb4)
  )
  (wire (pts (xy 117.475 91.44) (xy 124.46 91.44))
    (stroke (width 0) (type default))
    (uuid bd3abdc2-ea8d-4922-b119-17493ca6d440)
  )
  (wire (pts (xy 176.53 136.525) (xy 176.53 130.175))
    (stroke (width 0) (type default))
    (uuid bf6fc8d2-a91c-4b33-9d21-c83a945d35ae)
  )
  (wire (pts (xy 176.53 111.125) (xy 179.07 111.125))
    (stroke (width 0) (type default))
    (uuid c10b4427-dfeb-4bd2-8e2d-e1bacbf4545b)
  )
  (wire (pts (xy 113.03 114.3) (xy 124.46 114.3))
    (stroke (width 0) (type default))
    (uuid c13b7f43-1a3b-426e-8de3-82cfefbbd9a8)
  )
  (wire (pts (xy 176.53 117.475) (xy 176.53 123.825))
    (stroke (width 0) (type default))
    (uuid c16d170a-9eed-4d1d-8f6b-3b5ac0a4f1d5)
  )
  (wire (pts (xy 160.02 33.655) (xy 160.02 36.195))
    (stroke (width 0) (type default))
    (uuid c1b2f60d-4340-4795-ba2c-85994854afcc)
  )
  (wire (pts (xy 170.18 33.655) (xy 160.02 33.655))
    (stroke (width 0) (type default))
    (uuid c2988421-11aa-4d8e-a3d7-3a296a99907d)
  )
  (wire (pts (xy 215.265 83.185) (xy 210.185 83.185))
    (stroke (width 0) (type default))
    (uuid c4018f61-db8d-4480-b37c-9f475de9339d)
  )
  (wire (pts (xy 164.465 121.285) (xy 164.465 139.065))
    (stroke (width 0) (type default))
    (uuid c5015b12-91d5-4bdc-957e-c9bef1539197)
  )
  (wire (pts (xy 172.085 108.585) (xy 172.085 104.14))
    (stroke (width 0) (type default))
    (uuid c590022a-8eca-441c-a87f-441d9e4f8b31)
  )
  (wire (pts (xy 176.53 123.825) (xy 176.53 130.175))
    (stroke (width 0) (type default))
    (uuid d0623025-17fe-420f-a95d-470805e0aa9f)
  )
  (wire (pts (xy 149.86 101.6) (xy 179.07 101.6))
    (stroke (width 0) (type default))
    (uuid d2fcc186-baab-4fe1-8f71-d19b1db80257)
  )
  (wire (pts (xy 113.03 139.065) (xy 113.03 114.3))
    (stroke (width 0) (type default))
    (uuid d3b4d3c1-ffe2-4ac3-ae1e-2f9a5010a20d)
  )
  (wire (pts (xy 142.24 70.485) (xy 142.24 73.66))
    (stroke (width 0) (type default))
    (uuid d5bc9be6-e348-4421-b541-a80ef1cd9b42)
  )
  (wire (pts (xy 179.07 104.14) (xy 176.53 104.14))
    (stroke (width 0) (type default))
    (uuid d95b8a26-940c-483d-a1cd-4dc3b288552e)
  )
  (wire (pts (xy 156.845 71.12) (xy 156.845 60.96))
    (stroke (width 0) (type default))
    (uuid da45f9af-827d-4f2d-b406-581c3fd6b6d2)
  )
  (wire (pts (xy 167.005 141.605) (xy 110.49 141.605))
    (stroke (width 0) (type default))
    (uuid dc375848-4f75-43e4-b286-c01b53ff6a5c)
  )
  (wire (pts (xy 158.115 59.69) (xy 158.115 76.2))
    (stroke (width 0) (type default))
    (uuid dc5285bd-4620-478b-8a50-1e88520af6bc)
  )
  (wire (pts (xy 177.165 79.375) (xy 177.165 66.04))
    (stroke (width 0) (type default))
    (uuid df11966e-f28f-4955-8842-a05569d22609)
  )
  (wire (pts (xy 176.53 130.175) (xy 179.07 130.175))
    (stroke (width 0) (type default))
    (uuid e279ad96-8c6f-4fc7-abe1-5b28206799e4)
  )
  (wire (pts (xy 159.385 58.42) (xy 159.385 73.66))
    (stroke (width 0) (type default))
    (uuid e2bca5a3-def1-4c6b-9930-f4b8e5efe294)
  )
  (wire (pts (xy 111.76 111.76) (xy 111.76 140.335))
    (stroke (width 0) (type default))
    (uuid e531c084-94e0-4ab9-9f8c-98c73ff0b183)
  )
  (wire (pts (xy 179.07 108.585) (xy 172.085 108.585))
    (stroke (width 0) (type default))
    (uuid e5a23dee-e92f-48ae-9434-42d089348364)
  )
  (wire (pts (xy 158.115 76.2) (xy 182.88 76.2))
    (stroke (width 0) (type default))
    (uuid ecd55ab4-9ddb-4538-8e27-129d57d3384d)
  )
  (wire (pts (xy 149.86 111.76) (xy 161.925 111.76))
    (stroke (width 0) (type default))
    (uuid f222c8a0-b213-4c37-864a-773fd0ea67b1)
  )
  (wire (pts (xy 176.53 104.14) (xy 176.53 111.125))
    (stroke (width 0) (type default))
    (uuid f3d3c781-76a2-4083-8457-212812e79424)
  )
  (wire (pts (xy 120.015 60.96) (xy 120.015 88.9))
    (stroke (width 0) (type default))
    (uuid f9637695-632c-4229-9d06-8215d62ca6cf)
  )
  (wire (pts (xy 160.655 109.22) (xy 149.86 109.22))
    (stroke (width 0) (type default))
    (uuid feb97ef1-8528-4ace-adf3-1f4ad7621d5e)
  )
  (wire (pts (xy 164.465 95.25) (xy 179.07 95.25))
    (stroke (width 0) (type default))
    (uuid ff44e353-f9b9-4b62-bc89-d2e3e401d11e)
  )
  (wire (pts (xy 143.51 40.005) (xy 143.51 43.815))
    (stroke (width 0) (type default))
    (uuid ffe748c4-c435-40a9-bba0-7441c002298e)
  )

  (symbol (lib_id "power:VDD") (at 143.51 40.005 0) (unit 1)
    (in_bom yes) (on_board yes) (dnp no) (fields_autoplaced)
    (uuid 306901df-1df4-451a-ab50-7a7a7c0ce88d)
    (property "Reference" "#PWR05" (at 143.51 43.815 0)
      (effects (font (size 1.27 1.27)) hide)
    )
    (property "Value" "VDD" (at 143.51 35.56 0)
      (effects (font (size 1.27 1.27)))
    )
    (property "Footprint" "" (at 143.51 40.005 0)
      (effects (font (size 1.27 1.27)) hide)
    )
    (property "Datasheet" "" (at 143.51 40.005 0)
      (effects (font (size 1.27 1.27)) hide)
    )
    (pin "1" (uuid bcc6e811-b45c-4ce7-bcc8-1bbad372d375))
    (instances
      (project "MidiFootswitch"
        (path "/87769101-e041-49c8-be95-95025a0ad5ef"
          (reference "#PWR05") (unit 1)
        )
      )
    )
  )

  (symbol (lib_id "power:GND") (at 176.53 146.05 0) (unit 1)
    (in_bom yes) (on_board yes) (dnp no) (fields_autoplaced)
    (uuid 379282de-1815-4327-a0a5-f0129ffc963f)
    (property "Reference" "#PWR06" (at 176.53 152.4 0)
      (effects (font (size 1.27 1.27)) hide)
    )
    (property "Value" "GND" (at 176.53 150.495 0)
      (effects (font (size 1.27 1.27)))
    )
    (property "Footprint" "" (at 176.53 146.05 0)
      (effects (font (size 1.27 1.27)) hide)
    )
    (property "Datasheet" "" (at 176.53 146.05 0)
      (effects (font (size 1.27 1.27)) hide)
    )
    (pin "1" (uuid fdb91834-1578-4f72-a113-43236b4550f6))
    (instances
      (project "MidiFootswitch"
        (path "/87769101-e041-49c8-be95-95025a0ad5ef"
          (reference "#PWR06") (unit 1)
        )
      )
    )
  )

  (symbol (lib_id "power:GND") (at 160.02 36.195 0) (unit 1)
    (in_bom yes) (on_board yes) (dnp no) (fields_autoplaced)
    (uuid 39c897f9-fee5-4473-b1e4-212753d3e23e)
    (property "Reference" "#PWR04" (at 160.02 42.545 0)
      (effects (font (size 1.27 1.27)) hide)
    )
    (property "Value" "GND" (at 160.02 40.64 0)
      (effects (font (size 1.27 1.27)))
    )
    (property "Footprint" "" (at 160.02 36.195 0)
      (effects (font (size 1.27 1.27)) hide)
    )
    (property "Datasheet" "" (at 160.02 36.195 0)
      (effects (font (size 1.27 1.27)) hide)
    )
    (pin "1" (uuid b61112c9-2990-46db-a07b-2144accfe788))
    (instances
      (project "MidiFootswitch"
        (path "/87769101-e041-49c8-be95-95025a0ad5ef"
          (reference "#PWR04") (unit 1)
        )
      )
    )
  )

  (symbol (lib_id "power:VDD") (at 142.24 70.485 0) (unit 1)
    (in_bom yes) (on_board yes) (dnp no) (fields_autoplaced)
    (uuid 570b343f-bf40-463f-b4ff-c85518589231)
    (property "Reference" "#PWR01" (at 142.24 74.295 0)
      (effects (font (size 1.27 1.27)) hide)
    )
    (property "Value" "VDD" (at 142.24 66.04 0)
      (effects (font (size 1.27 1.27)))
    )
    (property "Footprint" "" (at 142.24 70.485 0)
      (effects (font (size 1.27 1.27)) hide)
    )
    (property "Datasheet" "" (at 142.24 70.485 0)
      (effects (font (size 1.27 1.27)) hide)
    )
    (pin "1" (uuid b815eedd-4d44-4fd9-ba23-59cdf6a330bc))
    (instances
      (project "MidiFootswitch"
        (path "/87769101-e041-49c8-be95-95025a0ad5ef"
          (reference "#PWR01") (unit 1)
        )
      )
    )
  )

  (symbol (lib_id "Connector:Conn_01x04_Pin") (at 220.345 85.725 0) (mirror y) (unit 1)
    (in_bom yes) (on_board yes) (dnp no)
    (uuid 5a1657ec-8f32-4c50-9c00-bc338ac7da06)
    (property "Reference" "J8" (at 219.71 78.105 0)
      (effects (font (size 1.27 1.27)))
    )
    (property "Value" "Conn_01x04_Pin" (at 219.71 80.645 0)
      (effects (font (size 1.27 1.27)))
    )
    (property "Footprint" "Connector_Molex:Molex_KK-254_AE-6410-04A_1x04_P2.54mm_Vertical" (at 220.345 85.725 0)
      (effects (font (size 1.27 1.27)) hide)
    )
    (property "Datasheet" "~" (at 220.345 85.725 0)
      (effects (font (size 1.27 1.27)) hide)
    )
    (pin "2" (uuid 7e11717d-d9d9-4b54-a941-ab07925f8e1b))
    (pin "3" (uuid c68cb131-ae81-49de-909d-e0f32a177d16))
    (pin "4" (uuid 4e896a0e-3183-43f0-be0c-f961a92a0363))
    (pin "1" (uuid f298b166-3a05-41ea-aed9-b0a62b3271ff))
    (instances
      (project "MidiFootswitch"
        (path "/87769101-e041-49c8-be95-95025a0ad5ef"
          (reference "J8") (unit 1)
        )
      )
    )
  )

  (symbol (lib_id "Connector:Conn_01x05_Pin") (at 187.96 71.12 0) (mirror y) (unit 1)
    (in_bom yes) (on_board yes) (dnp no) (fields_autoplaced)
    (uuid 751ad0ff-70ec-4926-8103-9cab66355d02)
    (property "Reference" "J9" (at 189.865 69.85 0)
      (effects (font (size 1.27 1.27)) (justify right))
    )
    (property "Value" "Conn_01x05_Pin" (at 189.865 72.39 0)
      (effects (font (size 1.27 1.27)) (justify right))
    )
    (property "Footprint" "Connector_Molex:Molex_KK-254_AE-6410-05A_1x05_P2.54mm_Vertical" (at 187.96 71.12 0)
      (effects (font (size 1.27 1.27)) hide)
    )
    (property "Datasheet" "~" (at 187.96 71.12 0)
      (effects (font (size 1.27 1.27)) hide)
    )
    (pin "1" (uuid eb7160d5-31ab-4a31-a488-f50e08912c25))
    (pin "3" (uuid d197f10e-c8c1-4e51-b01f-c466ba8ebfc1))
    (pin "4" (uuid 8058b191-de44-4ab8-9a4d-e24c1348a77c))
    (pin "5" (uuid 75396cd5-2855-4b7a-8a03-b129e8216d82))
    (pin "2" (uuid 00ec7a0f-1008-431b-85db-59e8f3f02d89))
    (instances
      (project "MidiFootswitch"
        (path "/87769101-e041-49c8-be95-95025a0ad5ef"
          (reference "J9") (unit 1)
        )
      )
    )
  )

  (symbol (lib_id "Connector:Conn_01x02_Pin") (at 184.15 121.285 0) (mirror y) (unit 1)
    (in_bom yes) (on_board yes) (dnp no) (fields_autoplaced)
    (uuid 776a29a2-d571-4fe1-9287-b74e8636523c)
    (property "Reference" "J5" (at 185.42 121.285 0)
      (effects (font (size 1.27 1.27)) (justify right))
    )
    (property "Value" "Conn_01x02_Pin" (at 185.42 123.825 0)
      (effects (font (size 1.27 1.27)) (justify right))
    )
    (property "Footprint" "Connector_Molex:Molex_KK-254_AE-6410-02A_1x02_P2.54mm_Vertical" (at 184.15 121.285 0)
      (effects (font (size 1.27 1.27)) hide)
    )
    (property "Datasheet" "~" (at 184.15 121.285 0)
      (effects (font (size 1.27 1.27)) hide)
    )
    (pin "1" (uuid 9366102d-0c28-4fdd-863c-b8e88fdec3ce))
    (pin "2" (uuid 9b629c0a-57c3-4dd9-9b1e-42b7356c4c93))
    (instances
      (project "MidiFootswitch"
        (path "/87769101-e041-49c8-be95-95025a0ad5ef"
          (reference "J5") (unit 1)
        )
      )
    )
  )

  (symbol (lib_id "power:VDD") (at 210.185 78.74 0) (unit 1)
    (in_bom yes) (on_board yes) (dnp no) (fields_autoplaced)
    (uuid 7904ed56-701d-4d63-9203-622cf9301bf9)
    (property "Reference" "#PWR09" (at 210.185 82.55 0)
      (effects (font (size 1.27 1.27)) hide)
    )
    (property "Value" "VDD" (at 210.185 74.295 0)
      (effects (font (size 1.27 1.27)))
    )
    (property "Footprint" "" (at 210.185 78.74 0)
      (effects (font (size 1.27 1.27)) hide)
    )
    (property "Datasheet" "" (at 210.185 78.74 0)
      (effects (font (size 1.27 1.27)) hide)
    )
    (pin "1" (uuid 7d24c2ff-5c6f-4cc2-a87c-723bd0dc3aa7))
    (instances
      (project "MidiFootswitch"
        (path "/87769101-e041-49c8-be95-95025a0ad5ef"
          (reference "#PWR09") (unit 1)
        )
      )
    )
  )

  (symbol (lib_id "Connector:Conn_01x02_Pin") (at 184.15 114.935 0) (mirror y) (unit 1)
    (in_bom yes) (on_board yes) (dnp no) (fields_autoplaced)
    (uuid 7bfa6c1c-460b-4566-9340-32f75d397090)
    (property "Reference" "J4" (at 185.42 114.935 0)
      (effects (font (size 1.27 1.27)) (justify right))
    )
    (property "Value" "Conn_01x02_Pin" (at 185.42 117.475 0)
      (effects (font (size 1.27 1.27)) (justify right))
    )
    (property "Footprint" "Connector_Molex:Molex_KK-254_AE-6410-02A_1x02_P2.54mm_Vertical" (at 184.15 114.935 0)
      (effects (font (size 1.27 1.27)) hide)
    )
    (property "Datasheet" "~" (at 184.15 114.935 0)
      (effects (font (size 1.27 1.27)) hide)
    )
    (pin "1" (uuid 9366102d-0c28-4fdd-863c-b8e88fdec3cf))
    (pin "2" (uuid 9b629c0a-57c3-4dd9-9b1e-42b7356c4c94))
    (instances
      (project "MidiFootswitch"
        (path "/87769101-e041-49c8-be95-95025a0ad5ef"
          (reference "J4") (unit 1)
        )
      )
    )
  )

  (symbol (lib_id "Connector:Conn_01x02_Pin") (at 184.15 108.585 0) (mirror y) (unit 1)
    (in_bom yes) (on_board yes) (dnp no) (fields_autoplaced)
    (uuid 8192ccb2-a119-4b80-b92e-72cfc2c476de)
    (property "Reference" "J3" (at 185.42 108.585 0)
      (effects (font (size 1.27 1.27)) (justify right))
    )
    (property "Value" "Conn_01x02_Pin" (at 185.42 111.125 0)
      (effects (font (size 1.27 1.27)) (justify right))
    )
    (property "Footprint" "Connector_Molex:Molex_KK-254_AE-6410-02A_1x02_P2.54mm_Vertical" (at 184.15 108.585 0)
      (effects (font (size 1.27 1.27)) hide)
    )
    (property "Datasheet" "~" (at 184.15 108.585 0)
      (effects (font (size 1.27 1.27)) hide)
    )
    (pin "1" (uuid 9366102d-0c28-4fdd-863c-b8e88fdec3d0))
    (pin "2" (uuid 9b629c0a-57c3-4dd9-9b1e-42b7356c4c95))
    (instances
      (project "MidiFootswitch"
        (path "/87769101-e041-49c8-be95-95025a0ad5ef"
          (reference "J3") (unit 1)
        )
      )
    )
  )

  (symbol (lib_id "power:VDD") (at 180.975 62.865 0) (unit 1)
    (in_bom yes) (on_board yes) (dnp no) (fields_autoplaced)
    (uuid 99e1ab63-85c5-4218-99f1-ef842f114d34)
    (property "Reference" "#PWR08" (at 180.975 66.675 0)
      (effects (font (size 1.27 1.27)) hide)
    )
    (property "Value" "VDD" (at 180.975 58.42 0)
      (effects (font (size 1.27 1.27)))
    )
    (property "Footprint" "" (at 180.975 62.865 0)
      (effects (font (size 1.27 1.27)) hide)
    )
    (property "Datasheet" "" (at 180.975 62.865 0)
      (effects (font (size 1.27 1.27)) hide)
    )
    (pin "1" (uuid 98e3220b-1cc9-4868-82a6-fe141c11273c))
    (instances
      (project "MidiFootswitch"
        (path "/87769101-e041-49c8-be95-95025a0ad5ef"
          (reference "#PWR08") (unit 1)
        )
      )
    )
  )

  (symbol (lib_id "power:GND") (at 177.165 79.375 0) (unit 1)
    (in_bom yes) (on_board yes) (dnp no) (fields_autoplaced)
    (uuid b025b421-2f51-4519-b007-bd6e1bd271c3)
    (property "Reference" "#PWR07" (at 177.165 85.725 0)
      (effects (font (size 1.27 1.27)) hide)
    )
    (property "Value" "GND" (at 177.165 83.82 0)
      (effects (font (size 1.27 1.27)))
    )
    (property "Footprint" "" (at 177.165 79.375 0)
      (effects (font (size 1.27 1.27)) hide)
    )
    (property "Datasheet" "" (at 177.165 79.375 0)
      (effects (font (size 1.27 1.27)) hide)
    )
    (pin "1" (uuid 9d288e9d-bef0-4932-9aed-e5da0a0bb7d0))
    (instances
      (project "MidiFootswitch"
        (path "/87769101-e041-49c8-be95-95025a0ad5ef"
          (reference "#PWR07") (unit 1)
        )
      )
    )
  )

  (symbol (lib_id "Connector:Conn_01x03_Pin") (at 175.26 36.195 0) (mirror y) (unit 1)
    (in_bom yes) (on_board yes) (dnp no) (fields_autoplaced)
    (uuid b5f01d8b-8902-48dc-a62d-1e64b328e2ce)
    (property "Reference" "J1" (at 176.53 34.925 0)
      (effects (font (size 1.27 1.27)) (justify right))
    )
    (property "Value" "Conn_01x03_Pin" (at 176.53 37.465 0)
      (effects (font (size 1.27 1.27)) (justify right))
    )
    (property "Footprint" "Connector_Molex:Molex_KK-254_AE-6410-03A_1x03_P2.54mm_Vertical" (at 175.26 36.195 0)
      (effects (font (size 1.27 1.27)) hide)
    )
    (property "Datasheet" "~" (at 175.26 36.195 0)
      (effects (font (size 1.27 1.27)) hide)
    )
    (pin "1" (uuid 2b3e1de6-c593-41c3-86d5-d4a06464c2aa))
    (pin "2" (uuid c3809031-5718-4d40-9f47-90e1582a47e6))
    (pin "3" (uuid 4a943eb1-b86c-4946-bc5e-18dfc6eae782))
    (instances
      (project "MidiFootswitch"
        (path "/87769101-e041-49c8-be95-95025a0ad5ef"
          (reference "J1") (unit 1)
        )
      )
    )
  )

  (symbol (lib_id "Device:R") (at 151.13 52.07 90) (unit 1)
    (in_bom yes) (on_board yes) (dnp no)
    (uuid c441fcb4-c153-4531-b29c-614a4912dad7)
    (property "Reference" "R2" (at 151.13 49.53 90)
      (effects (font (size 1.27 1.27)))
    )
    (property "Value" "220" (at 151.13 54.61 90)
      (effects (font (size 1.27 1.27)))
    )
    (property "Footprint" "Resistor_THT:R_Axial_DIN0204_L3.6mm_D1.6mm_P5.08mm_Horizontal" (at 151.13 53.848 90)
      (effects (font (size 1.27 1.27)) hide)
    )
    (property "Datasheet" "~" (at 151.13 52.07 0)
      (effects (font (size 1.27 1.27)) hide)
    )
    (pin "1" (uuid b3b81a76-9a42-4c45-8106-a301823679d7))
    (pin "2" (uuid 31e86ee6-1a2d-4a0c-898d-7b33c902caef))
    (instances
      (project "MidiFootswitch"
        (path "/87769101-e041-49c8-be95-95025a0ad5ef"
          (reference "R2") (unit 1)
        )
      )
    )
  )

  (symbol (lib_id "Connector:Conn_01x02_Pin") (at 184.15 133.985 0) (mirror y) (unit 1)
    (in_bom yes) (on_board yes) (dnp no) (fields_autoplaced)
    (uuid cde37ba4-1817-47be-b0eb-07472b84129f)
    (property "Reference" "J7" (at 185.42 133.985 0)
      (effects (font (size 1.27 1.27)) (justify right))
    )
    (property "Value" "Conn_01x02_Pin" (at 185.42 136.525 0)
      (effects (font (size 1.27 1.27)) (justify right))
    )
    (property "Footprint" "Connector_Molex:Molex_KK-254_AE-6410-02A_1x02_P2.54mm_Vertical" (at 184.15 133.985 0)
      (effects (font (size 1.27 1.27)) hide)
    )
    (property "Datasheet" "~" (at 184.15 133.985 0)
      (effects (font (size 1.27 1.27)) hide)
    )
    (pin "1" (uuid 9366102d-0c28-4fdd-863c-b8e88fdec3d1))
    (pin "2" (uuid 9b629c0a-57c3-4dd9-9b1e-42b7356c4c96))
    (instances
      (project "MidiFootswitch"
        (path "/87769101-e041-49c8-be95-95025a0ad5ef"
          (reference "J7") (unit 1)
        )
      )
    )
  )

  (symbol (lib_id "Connector:Conn_01x02_Pin") (at 184.15 101.6 0) (mirror y) (unit 1)
    (in_bom yes) (on_board yes) (dnp no) (fields_autoplaced)
    (uuid d4071769-c3f9-446e-b103-9a5fcac4366b)
    (property "Reference" "J2" (at 185.42 101.6 0)
      (effects (font (size 1.27 1.27)) (justify right))
    )
    (property "Value" "Conn_01x02_Pin" (at 185.42 104.14 0)
      (effects (font (size 1.27 1.27)) (justify right))
    )
    (property "Footprint" "Connector_Molex:Molex_KK-254_AE-6410-02A_1x02_P2.54mm_Vertical" (at 184.15 101.6 0)
      (effects (font (size 1.27 1.27)) hide)
    )
    (property "Datasheet" "~" (at 184.15 101.6 0)
      (effects (font (size 1.27 1.27)) hide)
    )
    (pin "1" (uuid 9366102d-0c28-4fdd-863c-b8e88fdec3d2))
    (pin "2" (uuid 9b629c0a-57c3-4dd9-9b1e-42b7356c4c97))
    (instances
      (project "MidiFootswitch"
        (path "/87769101-e041-49c8-be95-95025a0ad5ef"
          (reference "J2") (unit 1)
        )
      )
    )
  )

  (symbol (lib_id "power:GND") (at 137.16 126.365 0) (unit 1)
    (in_bom yes) (on_board yes) (dnp no)
    (uuid dca49c53-96cc-40e0-b500-f1145aa8fde5)
    (property "Reference" "#PWR02" (at 137.16 132.715 0)
      (effects (font (size 1.27 1.27)) hide)
    )
    (property "Value" "GND" (at 137.16 130.81 0)
      (effects (font (size 1.27 1.27)))
    )
    (property "Footprint" "" (at 137.16 126.365 0)
      (effects (font (size 1.27 1.27)) hide)
    )
    (property "Datasheet" "" (at 137.16 126.365 0)
      (effects (font (size 1.27 1.27)) hide)
    )
    (pin "1" (uuid 768bf0cb-4fea-4e99-965d-959c6d4af14a))
    (instances
      (project "MidiFootswitch"
        (path "/87769101-e041-49c8-be95-95025a0ad5ef"
          (reference "#PWR02") (unit 1)
        )
      )
    )
  )

  (symbol (lib_id "Connector:Conn_01x02_Pin") (at 184.15 127.635 0) (mirror y) (unit 1)
    (in_bom yes) (on_board yes) (dnp no) (fields_autoplaced)
    (uuid e68c8385-f991-4b18-b668-bd554dd623f0)
    (property "Reference" "J6" (at 185.42 127.635 0)
      (effects (font (size 1.27 1.27)) (justify right))
    )
    (property "Value" "Conn_01x02_Pin" (at 185.42 130.175 0)
      (effects (font (size 1.27 1.27)) (justify right))
    )
    (property "Footprint" "Connector_Molex:Molex_KK-254_AE-6410-02A_1x02_P2.54mm_Vertical" (at 184.15 127.635 0)
      (effects (font (size 1.27 1.27)) hide)
    )
    (property "Datasheet" "~" (at 184.15 127.635 0)
      (effects (font (size 1.27 1.27)) hide)
    )
    (pin "1" (uuid 9366102d-0c28-4fdd-863c-b8e88fdec3d3))
    (pin "2" (uuid 9b629c0a-57c3-4dd9-9b1e-42b7356c4c98))
    (instances
      (project "MidiFootswitch"
        (path "/87769101-e041-49c8-be95-95025a0ad5ef"
          (reference "J6") (unit 1)
        )
      )
    )
  )

  (symbol (lib_id "power:GND") (at 139.7 132.08 0) (unit 1)
    (in_bom yes) (on_board yes) (dnp no) (fields_autoplaced)
    (uuid e756c2e6-e4de-43a3-9611-e81606525c89)
    (property "Reference" "#PWR03" (at 139.7 138.43 0)
      (effects (font (size 1.27 1.27)) hide)
    )
    (property "Value" "GND" (at 139.7 136.525 0)
      (effects (font (size 1.27 1.27)))
    )
    (property "Footprint" "" (at 139.7 132.08 0)
      (effects (font (size 1.27 1.27)) hide)
    )
    (property "Datasheet" "" (at 139.7 132.08 0)
      (effects (font (size 1.27 1.27)) hide)
    )
    (pin "1" (uuid 768bf0cb-4fea-4e99-965d-959c6d4af14b))
    (instances
      (project "MidiFootswitch"
        (path "/87769101-e041-49c8-be95-95025a0ad5ef"
          (reference "#PWR03") (unit 1)
        )
      )
    )
  )

  (symbol (lib_id "MCU_Module:Arduino_Nano_v3.x") (at 137.16 99.06 0) (unit 1)
    (in_bom yes) (on_board yes) (dnp no) (fields_autoplaced)
    (uuid e7d17372-64ef-454a-9a78-44763c65bbf4)
    (property "Reference" "A1" (at 141.8941 124.46 0)
      (effects (font (size 1.27 1.27)) (justify left))
    )
    (property "Value" "Arduino_Nano_v3.x" (at 141.8941 127 0)
      (effects (font (size 1.27 1.27)) (justify left))
    )
    (property "Footprint" "Module:Arduino_Nano" (at 137.16 99.06 0)
      (effects (font (size 1.27 1.27) italic) hide)
    )
    (property "Datasheet" "http://www.mouser.com/pdfdocs/Gravitech_Arduino_Nano3_0.pdf" (at 137.16 99.06 0)
      (effects (font (size 1.27 1.27)) hide)
    )
    (pin "8" (uuid 689cd41e-5c82-4caa-b000-c556e5540b27))
    (pin "6" (uuid 7e9203f7-d9e4-441b-b2c5-8a1cd39be396))
    (pin "25" (uuid 4f35755c-d67d-4582-93ae-85116db81404))
    (pin "4" (uuid b519e7d3-1485-434b-ad50-3e1e5489277f))
    (pin "26" (uuid fedb172b-04ac-4825-bf05-edee4d04a290))
    (pin "15" (uuid 596641a0-6cd2-47dc-97e4-f125670af3dd))
    (pin "10" (uuid 269f19ac-982b-45fa-92a1-bff31cb2f7ac))
    (pin "2" (uuid d75bf3b7-3127-4a00-b611-f202992b5c31))
    (pin "14" (uuid 97bd8828-4a72-41f1-83c9-d6cdd04de143))
    (pin "22" (uuid acebd9e8-a575-4ea0-8dd2-2d26dba73f9e))
    (pin "29" (uuid 71a4f3e7-3ab4-43f0-8a05-0041cafff570))
    (pin "3" (uuid 25314e70-0611-4b99-b4c2-41a81273aba3))
    (pin "9" (uuid 2aec7371-c793-4b92-afcc-51c174f14520))
    (pin "17" (uuid b8095537-72bd-439f-8bbc-0dd6ca66b972))
    (pin "20" (uuid accb4375-c54d-4781-916c-a9ed1a955443))
    (pin "21" (uuid 1cb8a1a6-a874-463b-a0aa-79037a62f6a9))
    (pin "28" (uuid 843979c9-627d-4b67-b3fa-06e8182015da))
    (pin "11" (uuid 5f83404e-2c82-4017-8e0d-faa03a88cbd0))
    (pin "30" (uuid aca0e5c3-299a-44a5-abde-077c803c2722))
    (pin "5" (uuid 1eea6a64-ab98-43ba-8cda-eebe69f0c27a))
    (pin "16" (uuid 9ad85e82-54e2-4512-a5ca-14d35cacbf9c))
    (pin "12" (uuid 5a570fd8-3ae0-487c-bd91-43ac65af68b0))
    (pin "23" (uuid eaed7cd4-c5c2-4d47-be74-7c86d15b2189))
    (pin "19" (uuid 11ed9263-21ca-4fd4-8a12-07fc7034ebf6))
    (pin "13" (uuid 3de38eaa-6d9f-4022-9551-dd0546241b23))
    (pin "24" (uuid 69eabb9e-821c-442a-bf0f-81bcc9e5a2b4))
    (pin "18" (uuid 0d81096a-c7b2-4251-a82d-af95a1d88d28))
    (pin "27" (uuid 8989c94b-1e51-4740-b972-1b7b8ed5d08f))
    (pin "1" (uuid 38e3786a-c705-44dc-a7a2-511f57390769))
    (pin "7" (uuid bd2dd277-b4a9-40ea-82fe-df332371a2e8))
    (instances
      (project "MidiFootswitch"
        (path "/87769101-e041-49c8-be95-95025a0ad5ef"
          (reference "A1") (unit 1)
        )
      )
    )
  )

  (symbol (lib_id "Connector:Conn_01x02_Pin") (at 184.15 95.25 0) (mirror y) (unit 1)
    (in_bom yes) (on_board yes) (dnp no) (fields_autoplaced)
    (uuid eb29da22-25fd-48d6-8c35-e98bc9e406ee)
    (property "Reference" "J10" (at 185.42 95.25 0)
      (effects (font (size 1.27 1.27)) (justify right))
    )
    (property "Value" "Conn_01x02_Pin" (at 185.42 97.79 0)
      (effects (font (size 1.27 1.27)) (justify right))
    )
    (property "Footprint" "Connector_Molex:Molex_KK-254_AE-6410-02A_1x02_P2.54mm_Vertical" (at 184.15 95.25 0)
      (effects (font (size 1.27 1.27)) hide)
    )
    (property "Datasheet" "~" (at 184.15 95.25 0)
      (effects (font (size 1.27 1.27)) hide)
    )
    (pin "1" (uuid 8053ffc3-fd37-4de7-83ae-4ef650db7a18))
    (pin "2" (uuid 451060d6-11b1-42c3-a4a4-6ed595ee283d))
    (instances
      (project "MidiFootswitch"
        (path "/87769101-e041-49c8-be95-95025a0ad5ef"
          (reference "J10") (unit 1)
        )
      )
    )
  )

  (symbol (lib_id "Device:R") (at 151.13 43.815 270) (unit 1)
    (in_bom yes) (on_board yes) (dnp no)
    (uuid f3db7b3d-75a8-43ab-baf9-fa224903f318)
    (property "Reference" "R1" (at 151.13 41.275 90)
      (effects (font (size 1.27 1.27)))
    )
    (property "Value" "220" (at 151.13 46.355 90)
      (effects (font (size 1.27 1.27)))
    )
    (property "Footprint" "Resistor_THT:R_Axial_DIN0204_L3.6mm_D1.6mm_P5.08mm_Horizontal" (at 151.13 42.037 90)
      (effects (font (size 1.27 1.27)) hide)
    )
    (property "Datasheet" "~" (at 151.13 43.815 0)
      (effects (font (size 1.27 1.27)) hide)
    )
    (pin "2" (uuid 1049236c-2b5d-4143-8df6-fea571716454))
    (pin "1" (uuid cf47502e-7324-4a7f-a2b9-598c9f0b611c))
    (instances
      (project "MidiFootswitch"
        (path "/87769101-e041-49c8-be95-95025a0ad5ef"
          (reference "R1") (unit 1)
        )
      )
    )
  )

  (symbol (lib_id "power:GND") (at 207.01 93.345 0) (unit 1)
    (in_bom yes) (on_board yes) (dnp no) (fields_autoplaced)
    (uuid f8c7a166-c7c2-41b1-aab2-1852d66ddfe8)
    (property "Reference" "#PWR010" (at 207.01 99.695 0)
      (effects (font (size 1.27 1.27)) hide)
    )
    (property "Value" "GND" (at 207.01 97.79 0)
      (effects (font (size 1.27 1.27)))
    )
    (property "Footprint" "" (at 207.01 93.345 0)
      (effects (font (size 1.27 1.27)) hide)
    )
    (property "Datasheet" "" (at 207.01 93.345 0)
      (effects (font (size 1.27 1.27)) hide)
    )
    (pin "1" (uuid 077a9a33-4ad7-45f1-9918-7e22271eabf9))
    (instances
      (project "MidiFootswitch"
        (path "/87769101-e041-49c8-be95-95025a0ad5ef"
          (reference "#PWR010") (unit 1)
        )
      )
    )
  )

  (sheet_instances
    (path "/" (page "1"))
  )
)
